{
  "name": "Abyssal Field",
  "requires": [
    "hell_stone",
    "poisonous_cloud"
  ],
  "duration": 1,
  "base_damage": 2,
  "mana_cost": 0,
  "current_duration": 0,
  "level": 1,
  "factor": 1.5,
  "skill_type": "magical"
}