{
  "name": "Deflect Stance",
  "requires": [
    "counter_stance",
    "sonic_blade"
  ],
  "duration": 1,
  "base_damage": 2,
  "mana_cost": 1,
  "current_duration": 0,
  "level": 1,
  "factor": 1.5,
  "skill_type": "physical"
}