{
  "name": "Elemental Storm",
  "requires": [
    "super_nova"
  ],
  "duration": 1,
  "base_damage": 2,
  "mana_cost": 0,
  "current_duration": 0,
  "level": 1,
  "factor": 1.5,
  "skill_type": "magical"
}