{
  "name": "Rolling Smash",
  "requires": [
    "power_smash",
    "counter_attack"
  ],
  "duration": 1,
  "base_damage": 2,
  "mana_cost": 1,
  "current_duration": 0,
  "level": 1,
  "factor": 1.5,
  "skill_type": "physical"
}