{
  "name": "Amia",
  "stats": {
    "hit_points": 10,
    "base_hit_points": 10,
    "hit_points_level": 0,
    "attack": 1,
    "defense": 0,
    "mana": 0,
    "base_mana": 10,
    "mana_level": 0,
    "mana_regeneration": 0,
    "luck": 0,
    "magic_defense": 0,
    "speed": 1
  },
  "skills": [
  ],
  "inventory": [
    "none"
  ],
  "lv": 1
}