{
  "name": "Coreless Slime",
  "stats": {
    "hit_points": 1,
    "base_hit_points": 1,
    "hit_points_level": 0,
    "attack": 1,
    "defense": 0,
    "mana": 0,
    "base_mana": 0,
    "mana_level": 0,
    "mana_regeneration": 0,
    "luck": 0,
    "magic_defense": 0,
    "speed": 1
  },
  "skills": [
  ],
  "inventory": [
    "none",
    "none",
    "none",
    "none",
    "dirty_mucus"
  ],
  "lv": 1
}