{
  "name": "Ursa",
  "stats": {
    "hit_points": 99,
    "base_hit_points": 50,
    "hit_points_level": 0,
    "attack": 1,
    "defense": 0,
    "mana": 0,
    "base_mana": 0,
    "mana_level": 0,
    "mana_regeneration": 0,
    "luck": 0,
    "magic_defense": 0,
    "speed": 1
  },
  "skills": [
  ],
  "inventory": [],
  "lv": 1
}