[
  {
    "keyword": "sp",
    "explanation": "'SP' or 'sp' is the shortage of 'Skill-Points'.\nSkill points can be invested through the skill'ing menu (menu>skilling).\nSkill points can be used to increase the players stats\nlike attack or defense,\nor used to unlock new and more powerful skills."
  }
]