{
  "name": "Boatwright Bay",
  "spawns": [
    "nothing",
    "abarenon",
    "acato"
  ],
  "locked_phrase": "this location is currently not reachable",
  "register": "register_monster_zone",
  "connected": [
    "boatwright"
  ],
  "level_ranges": [
    {
      "monster_name": "acato",
      "min_level": 1,
      "max_level": 1
    },
    {
      "monster_name": "abarenon",
      "min_level": 20,
      "max_level": 50
    }
  ]
}

 