{
  "name": "Cliffted Peaks",
  "spawns": [
    "nothing",
    "asellus",
    "anthus"
  ],
  "locked_phrase": "this location is currently not reachable",
  "register": "register_monster_zone",
  "connected": [
    "plane_of_the_red_pillars",
    "lybster_castle"
  ],
  "level_ranges": [
    {
      "monster_name": "asellus",
      "min_level": 10,
      "max_level": 15
    },
    {
      "monster_name": "anthus",
      "min_level": 10,
      "max_level": 25
    }
  ]
}
