{
  "name": "Forest of Wavering Mist",
  "spawns": [
    "nothing",
    "ahanes"
  ],
  "locked_phrase": "this location is currently not reachable",
  "register": "register_monster_zone",
  "connected": [
    "bear_forest",
    "yofel_castle",
    "lake_talpha"
  ],
  "level_ranges": [
    {
      "monster_name": "ahanes",
      "min_level": 20,
      "max_level": 30
    }
  ]
}