{
  "name": "Lake Talpha",
  "spawns": [
    "nothing",
    "allec",
    "amia",
    "alphoraz"
  ],
  "locked_phrase": "this location is currently not reachable",
  "register": "register_monster_zone",
  "connected": [
    "forest_of_wavering_mist",
    "wallowdale",
    "thousand_snake_swamp"
  ],
  "level_ranges": [
    {
      "monster_name": "allec",
      "min_level": 10,
      "max_level": 20
    },
    {
      "monster_name": "amia",
      "min_level": 20,
      "max_level": 30
    },
    {
      "monster_name": "alphoraz",
      "min_level": 5,
      "max_level": 15
    }
  ]
}