{
  "name": "Panshaw",
  "spawns": [],
  "locked_phrase": "this location is currently not reachable",
  "register": "register_town",
  "connected": [
    "panshaw_inn",
    "sunshine_hill"
  ],
  "npc_s": [
    "panshaw_maria",
    "panshaw_luca"
  ]
}