{
  "name": "Silent Valley",
  "spawns": [
    "nothing"
  ],
  "locked_phrase": "this location is currently not reachable",
  "register": "register_monster_zone",
  "connected": [
    "skeleton_prairie",
    "black_iron_palace",
    "leurbost"
  ]
}
