{
  "name": "Skeleton Prairie",
  "spawns": [
    "nothing",
    "skeleton"
  ],
  "locked_phrase": "this location is currently not reachable",
  "register": "register_monster_zone",
  "connected": [
    "lybster_castle",
    "castle_gakey",
    "silent_valley"
  ],
  "level_ranges": [
    {
      "monster_name": "skeleton",
      "min_level": 1,
      "max_level": 1
    }
  ]
}
