{
  "name": "Sunshine Forest",
  "spawns": [
    "goblin",
    "stick",
    "ripped_cloth",
    "nothing"
  ],
  "locked_phrase": "this location is currently not reachable",
  "register": "register_monster_zone",
  "connected": [
    "sunshine_hill",
    "bear_forest",
    "stawford"
  ],
  "level_ranges": [
    {
      "monster_name": "goblin",
      "min_level": 5,
      "max_level": 20
    }
  ]
}