{
  "name": "Sunshine Hill",
  "spawns": [
    "coreless_slime",
    "coreless_slime",
    "coreless_slime",
    "coreless_slime",
    "coreless_slime",
    "coreless_slime",
    "coreless_slime",
    "coreless_slime",
    "coreless_slime",
    "coreless_slime",
    "coreless_slime",
    "coreless_slime",
    "coreless_slime",
    "coreless_slime",
    "coreless_slime",
    "coreless_slime",
    "coreless_slime",
    "coreless_slime",
    "coreless_slime",
    "coreless_slime",
    "coreless_slime",
    "coreless_slime",
    "coreless_slime",
    "coreless_slime",
    "coreless_slime",
    "coreless_slime",
    "coreless_slime",
    "small_slime",
    "dirty_mucus",
    "dirty_mucus",
    "dirty_mucus",
    "dirty_mucus",
    "dirty_mucus",
    "dirty_mucus",
    "dirty_mucus",
    "dirty_mucus",
    "dirty_mucus",
    "dirty_mucus",
    "dirty_mucus",
    "dirty_mucus",
    "dirty_mucus",
    "dirty_mucus",
    "dirty_mucus",
    "dirty_mucus",
    "dirty_mucus",
    "dirty_mucus",
    "nothing",
    "nothing",
    "nothing",
    "nothing",
    "nothing",
    "nothing",
    "nothing",
    "nothing",
    "nothing",
    "nothing",
    "nothing",
    "nothing",
    "nothing",
    "nothing",
    "nothing",
    "nothing",
    "nothing",
    "nothing",
    "nothing",
    "nothing",
    "nothing",
    "nothing",
    "nothing",
    "nothing",
    "nothing",
    "nothing",
    "nothing",
    "nothing",
    "nothing",
    "nothing",
    "nothing",
    "nothing",
    "nothing",
    "nothing",
    "nothing",
    "nothing",
    "nothing",
    "nothing",
    "nothing",
    "nothing",
    "nothing",
    "nothing",
    "nothing",
    "nothing",
    "nothing",
    "nothing",
    "nothing",
    "nothing",
    "nothing",
    "nothing",
    "nothing",
    "nothing",
    "nothing"
  ],
  "locked_phrase": "this location is currently not reachable",
  "register": "register_monster_zone",
  "connected": [
    "panshaw",
    "sunshine_forest",
    "caldera_lake",
    "lybster"
  ],
  "level_ranges": [
    {
      "monster_name": "coreless_slime",
      "min_level": 1,
      "max_level": 3
    },
    {
      "monster_name": "small_slime",
      "min_level": 45,
      "max_level": 55
    }
  ]
}