{
  "name": "Thousand Snake Swamp",
  "spawns": [
    "nothing",
    "alphoraz",
    "aspis",
    "abides"
  ],
  "locked_phrase": "this location is currently not reachable",
  "register": "register_monster_zone",
  "connected": [
    "lake_talpha",
    "thousand_snake_castle"
  ],
  "level_ranges": [
    {
      "monster_name": "alphoraz",
      "min_level": 10,
      "max_level": 30
    },
    {
      "monster_name": "aspis",
      "min_level": 50,
      "max_level": 70
    },
    {
      "monster_name": "abides",
      "min_level": 30,
      "max_level": 50
    }
  ]
}