{
  "name": "Tidal Plane",
  "spawns": [
    "nothing",
    "albirez",
    "aphorus"
  ],
  "locked_phrase": "this location is currently not reachable",
  "register": "register_monster_zone",
  "connected": [
    "volupta"
  ],
  "level_ranges": [
    {
      "monster_name": "albirez",
      "min_level": 90,
      "max_level": 110
    },
    {
      "monster_name": "aphorus",
      "min_level": 40,
      "max_level": 50
    }
  ]
}