{
  "name": "Volupta",
  "spawns": [],
  "locked_phrase": "this location is currently not reachable",
  "register": "register_town",
  "connected": [
    "tidal_plane",
    "volupta_beach",
    "volupta_inn"
  ]
}
