{
  "name": "Yofel Castle",
  "spawns": [
    "myrmecoleon"
  ],
  "locked_phrase": "this location is currently not reachable",
  "register": "register_monster_zone",
  "connected": [
    "monument_of_swordsmen",
    "forest_of_wavering_mist"
  ],
  "level_ranges": [
    {
      "monster_name": "myrmecoleon",
      "min_level": 40,
      "max_level": 50
    }
  ]
}