{
  "player_input": "How has live been lately?",
  "response": {
    "repeatable": true,
    "text": "Nothing big is happening around here.\nThis is just a quiet town at the center of our land.\nIf you want a more adventurous live, you should consider visiting the other towns.\n",
    "speed": 5
  }
}